414799874815574017	3	2
323025981407391744	3	2
380875610975109120	1	2
393588766482649088	1	0
155430844994031616	2	1
369705630850113536	2	1
156734003699920897	2	1
377880991089446912	2	1
392810129990905856	1	2
270983118910005248	2	0
207523476251213825	2	2
340552681246564352	2	1
319544162821234688	2	2
243027390635339777	2	1
412753255924776960	2	1
318548723678461952	2	1
339972040331235328	1	2
338947311856123904	2	1
278202929264082944	1	0
303671451981062144	1	2
400376620646539264	1	0
153324505157218305	1	1
380796993670369280	3	2
351822937453629441	3	2
407525942441955328	2	2
364400290008543233	1	0
280772678384762881	3	2
254678930513080321	3	2
329073063360593921	2	1
326429409793953792	2	1
296672030705717250	2	1
403330379416743936	2	0
217770240027787264	2	1
252763916529192962	3	2
314004540875743236	2	0
313019014261661696	3	2
255880143422234625	2	1
206166427198173184	2	1
153612607562063872	3	2
182122197714866177	2	0
164548682031693824	2	1
265241059162992640	2	0
357467578253316096	2	1
326867067557003264	3	1
282667927356973056	2	1
367868808511623168	2	1
374356218514800641	3	0
401519728172097537	2	1
359838347520258048	2	1
417845788253777920	2	1
274558934478647296	3	2
358645924240699392	2	1
248517923973496832	1	0
358292302772436992	3	2
262225275406913537	3	0
278191654001844224	2	1
353606933657292800	2	1
312725950783713280	1	2
302119799020978178	3	2
366638900120272898	2	0
390269227913216000	2	1
236186337290629120	2	1
376516902740578304	2	1
321536661777420289	3	2
408778801942773760	2	1
404988149644140545	2	1
241757717629378560	2	1
402634301319020545	2	1
408700600743120896	3	2
309110129205321728	2	1
204263914941329408	2	1
330675317519818752	1	0
347953528565800960	2	1
361141568289259520	3	2
342462720911736832	2	1
257463268996681728	2	1
249584089051586562	2	1
407699790932475904	2	1
382596383251128320	2	1
178733186560434177	2	0
345391462873190401	2	1
346475886893232128	1	1
267266322482753536	2	1
388017597024710656	2	1
183144512925876224	2	1
407021453780217857	2	0
238060925326880769	1	0
277569289156976640	2	0
206623661057261568	2	1
396976686434381824	2	1
293386772371623936	2	1
368599592348045312	2	1
382866757029199872	2	1
173251018052730880	2	0
358241147463798786	3	2
210770141930209280	2	1
353044713156247553	1	0
379739787655393280	1	0
296266668680810496	2	1
264177528762155009	3	2
154286816198012928	4	3
156577611068346368	2	0
253309009719853057	3	1
408966633932480512	2	1
330507117519839234	1	0
378549172150222848	2	0
351817192813236227	2	0
217961682478178306	2	1
307320263303909377	2	0
383240751544795136	3	1
287920297565356032	2	1
411897337058172928	1	1
385837044276408320	2	1
373499972173725696	1	0
252800227835256833	2	1
368472711775150080	2	1
355385984457768960	2	1
395281190921732096	3	1
329656136997425153	1	0
281462826931978241	2	1
278466907294814208	3	0
313828888725827584	2	0
362267361153269760	3	2
327252415927685121	2	1
373709120563470336	2	1
338402028730580993	2	1
307510609249964032	3	2
408474759710916608	2	0
348045210556706817	3	2
336988748623515648	2	1
408309593052155905	2	1
408629477896617984	2	1
339823235212406785	2	0
299939375880495105	2	2
394916237966200832	2	1
357553876725006337	2	1
321841172341485568	4	3
360254594779070465	2	0
190575407542697985	1	0
308283482650587136	2	1
299332659803455488	1	0
274955244537008128	2	1
186984739251564544	3	0
221457994033016832	1	2
343561778564825089	2	1
394222409982566400	4	1
392329659020754944	2	1
257985870597091329	3	2
344512677747490816	3	2
358192558024835072	2	1
199627948742025217	2	1
296593735041564672	2	1
377830982684278784	4	3
247163664606576640	1	0
329976603373338624	2	2
363440752753250304	2	1
357246921364094976	1	2
416473955059642369	1	2
320387073158836225	2	1
361596184042807297	2	2
394967998844665856	2	1
324706467703828481	1	1
385477175773655040	3	1
170523392615792640	2	2
381093582222131200	3	1
321416512848154625	2	1
289200098586546177	2	2
313027553558409217	2	2
254814497984880640	2	1
269293643863572480	1	2
328912580619952128	2	1
397833199557951488	2	1
285445325639012352	4	3
348313862665285632	2	0
334881565190545408	2	1
294054849102897152	2	1
230334519633408000	3	2
263648342603595776	2	0
347472096709976064	3	0
376471442923065344	2	1
339342268622319617	3	0
371449788157263873	2	0
271081305826009090	2	1
369833000428908544	2	1
411570913503494144	2	1
396354733335535616	1	2
334760169609236481	2	1
187348323127148545	1	0
412999901187158016	2	1
190329317992046593	1	1
349635522102165506	3	0
252573412113911809	3	2
415676206995226624	2	1
378591070286016513	2	1
319127245790789632	3	2
361340067815497729	4	3
401354718431019008	3	2
311718569257889792	2	1
305807778256142337	3	2
326394429961281538	3	2
331537904289603586	2	1
385430308180344832	2	1
397579061884514305	2	1
327226527550943232	1	1
309319642810298369	2	1
258971597040414720	3	2
279402141226004480	2	1
294863195695357954	2	2
263336309580521472	3	0
392064919337566208	4	3
408316779954716672	2	1
303804729522270208	1	0
231883016610410496	3	2
199820455387996161	2	1
296622933818871808	1	0
265592271112634368	2	1
382548708346179584	2	1
249077007877566464	2	1
294115264788844544	4	3
408070968901251073	1	0
249729707795439617	2	0
418054687192260609	2	1
274342034985332737	3	2
352145341031784448	1	0
290339634481881088	2	1
395005579984658435	2	1
277975765725876224	4	3
410598012050624512	2	1
331670373483556868	2	1
213315639539015680	2	1
385128874092539904	3	2
345158269486108674	2	2
312740945495990272	2	2
266393604744937472	2	1
378982146167537664	2	1
405079050693382144	2	1
189889580286214144	1	2
254630785934581760	2	1
392855458899562497	2	2
378435278341275648	2	2
266947624802873346	2	1
280075351604989953	2	1
233636035836403712	2	1
231532133926195200	2	0
366763503652044800	2	2
399652748062633984	4	3
400413624382259200	1	1
400329432625192960	3	1
344588001017466880	3	2
312018303499509761	2	2
273982235609272322	2	1
405364918263623680	2	2
369478320473137152	4	3
318907034764472320	2	1
416401693979709441	2	1
372495415003721731	3	1
417845987907207168	2	2
271997576746778626	2	0
415444465827184640	2	1
198908672330563584	2	1
297422732910542848	2	1
337441929757347841	1	0
328914830805323776	2	1
328946687802503170	2	1
213125486065356800	2	2
292347724190322689	2	1
308718507372191744	3	2
213918790147248129	3	2
390621615249453056	2	2
331141230463438848	2	1
182698055798231040	2	2
322898010164043776	4	3
305061559938478080	2	1
346118761847328769	1	0
410545289226113024	4	3
316585191848148993	2	2
318156222421409793	2	1
347407095445983232	2	1
320027885811421184	1	2
273871451998789635	2	1
318331521729703936	1	0
216661952607428609	2	1
381583069649453058	4	3
318893837294653442	2	1
302271244999487488	3	1
182568556771295232	2	1
153883338912972801	2	1
261999093411368962	2	1
357679220777943040	2	1
210783503883829248	2	1
292707338064916480	2	1
301169368233021441	3	0
271005926306242563	1	0
296819393411813376	2	1
312045303404568577	2	1
365753104165109763	2	1
372704102532513792	2	1
317763597436583937	3	2
276808252589748224	2	1
322405534802276352	3	2
398654390489612288	2	1
248145811865759744	3	2
388727402685530112	3	2
198995608965619712	2	1
184465342855262208	2	1
350272586908839937	2	1
269125479062183936	3	1
217515523297116160	2	1
207964715408822274	1	0
401049896926470144	3	2
360193357739327488	2	2
417326908104527872	2	1
346675194087211008	2	1
382894662903533569	2	1
331947326929264642	1	0
176741096137822209	3	2
394547737888559104	2	1
379808522923290624	1	0
301793026748080128	1	0
394780772688592896	2	1
337289059439345664	2	1
385913238371565568	2	0
370020732048539648	2	2
153673559741440001	4	3
377063126522671104	4	3
379554189275590656	4	3
222871689149681665	3	0
307867089736196099	2	1
341553481720684545	4	3
258695148349820928	2	1
364620931215269888	2	1
366825044300677123	2	2
304929423231160320	2	1
362409472225841152	1	0
415663561105756160	2	1
379704729066278912	3	2
312711380111335424	2	1
383624698527244288	2	1
256927845463506944	2	2
357298011413549056	2	2
364783865233027074	3	2
412767017243279360	2	0
413754689617137666	2	1
357349414706216964	2	0
389629370907623424	1	2
390847190908018688	2	1
345659488902209536	3	2
170608906438062080	2	1
369176382170873856	2	1
378001121848987649	1	2
378227448821071872	2	1
246252187368443904	3	2
378542833982246912	2	2
350720063071985664	2	1
319196282986037248	1	0
304679218019696640	3	2
361642545362644996	1	1
234178130275889152	2	1
407720346033594368	2	1
216889431179792384	2	2
239758780412334081	2	1
364568163075112960	2	0
378320508485656577	2	2
379293847789895680	2	1
296865803989557248	2	1
353305662421340161	1	0
242975856031563776	2	1
370734278784872448	2	1
312715325244334080	2	1
195266442445328384	2	1
309086725290995712	2	1
161221258506276864	2	1
298141615652999169	2	2
343769240005906434	1	0
176282240534323201	2	1
413080696802914304	1	0
363754400206299136	2	2
160185563276783616	2	1
294314116363984896	4	3
342961773101604865	3	2
367703241985101824	2	0
257805272553254912	2	1
396412746822344704	3	2
348523249862324225	2	1
298993175694032897	2	1
402057579376807936	2	1
317330006856593410	2	0
394264023522619392	2	0
355407334048153602	2	1
408695948114542593	2	1
229653944295620609	2	1
241378609766469632	4	3
275758517724512257	3	2
313824297238003712	2	0
218312445817655296	2	1
379287320249511936	2	2
346818894884921344	2	0
407254051659997184	3	1
384699415904407552	1	1
203962443838406656	4	3
307189436892999680	2	1
298507677930225664	1	2
305709609895731202	3	2
340467922424176640	3	1
306393716761980928	2	1
334852401804738560	2	1
328201476407173120	2	1
301985938270220289	2	1
373815433423761409	2	1
261319699420286976	2	1
185108904567508993	1	0
340655084784472064	3	2
288032956604375040	4	1
267764773662388224	1	0
252784073821540354	2	2
382633989653422080	3	2
297202174600032257	1	0
303563908722089984	2	1
306832251151343616	2	2
301529458114953218	2	1
305670305051987968	2	1
326408616741576704	1	0
302026737204752386	3	2
247386165093752832	2	1
291391240459669504	2	1
372524719888945152	2	1
388617646906023936	2	1
288460658524164097	2	1
203491386484469762	2	1
155657615815348224	2	1
357241736503889920	3	2
373611759661506560	1	1
346748470826262528	2	2
350790703036637184	2	1
206511899293138944	2	1
313072330605723650	3	0
389198276085710848	2	1
282065767057461249	3	2
155089143184097280	2	0
328189279215951872	2	1
319584658180411392	2	1
415139706377367552	2	1
371711864163823616	4	3
294619378366947328	2	2
402791218326679552	2	1
395007100726050816	2	1
316638488390930433	3	2
263263920389763072	2	1
372459492811997184	1	2
264476294631280640	2	2
186884162593103872	2	0
338350990208147456	2	0
197440416793100289	4	3
376331471654367232	2	1
406152143750434816	2	1
309835567275855872	2	2
377812089920053249	1	0
403606217802936320	2	1
299636975407874050	2	1
378325164125351936	2	1
335910757982167040	1	1
369244016795086848	2	2
347413522357039104	2	1
314078533196582912	2	2
329302524601446400	2	2
364198509806755840	3	1
411310253020839936	3	0
416470284724867073	2	1
392377521880432640	2	1
154288614145138689	4	3
385789378456715264	2	1
374367698840326144	2	1
278581846437158913	3	2
417047114376826881	1	0
380707604819091456	1	1
181911956226187264	2	1
375820036155265025	2	2
395714313182138368	2	1
363060973613379584	2	1
349737705057427458	2	2
410196922478379008	2	1
161723356868120576	2	0
383674700309991424	2	2
368553577662279681	3	1
400251708666052608	2	1
338023516072980480	2	1
377539939506094080	2	1
297919376739418112	2	1
331306613514305536	2	0
162860273089249280	2	1
274284323425898497	2	1
259304446251659265	2	1
386499202886684672	2	1
268371333560299521	3	2
380791320878800896	3	0
342012259373047808	1	1
334668313215004673	2	1
321138961529593857	2	1
211082834872504320	2	1
330598878715981824	2	1
330104656913117184	1	0
310911567430578177	2	1
363148065399517185	2	1
353250274791530496	2	1
357250042505080833	1	2
409819982596280320	1	0
309091811983507456	2	1
321795688583270401	2	1
329156184596684801	2	1
355434101198688256	2	2
362678964344463361	1	1
403512532251729920	3	2
294915100412882944	2	1
319518430501953536	2	0
329650113439989761	2	1
251737586895314944	3	2
286277900762771457	2	1
195502242093207552	2	0
305489887241596929	3	2
327123947340574721	3	2
263395089890545664	4	3
259023472091594752	3	2
212733212659683328	3	0
284826457446944768	2	1
232536664013164544	3	2
215627450959413248	3	2
406844783689465856	2	1
316436584457175040	2	1
411708817106153472	2	1
335601796816973824	2	1
329044442663235586	4	3
387205430264754176	3	1
388691898036404224	2	1
375609807706660864	2	1
357258570108121088	3	2
414810514770771968	2	1
210866133350367233	1	1
352100196286603265	3	0
289970359606837249	2	2
409038665277788160	2	2
316054769166868480	2	1
382668440286158848	3	1
398075550633570304	2	1
384995473142341633	3	2
240257816517038080	4	3
376161207117283329	1	1
403667610187091968	1	0
301437546469134336	2	1
325819645896564736	2	1
230702827331276800	2	2
411330810231656448	2	1
224505636090683392	2	1
255849405696077824	2	1
277035338340372480	3	0
291719654399934467	2	1
406477266102022144	2	1
252259521764925441	2	1
389140362406940672	2	1
281036541265059840	3	2
392019368185712640	2	1
411574014445101058	2	1
319563239518261248	3	2
349216429310087168	4	3
392462037613150208	1	1
417810541462437888	4	3
388497265406787584	1	0
357314529509646337	2	1
382338464316145665	2	2
184417677572444161	2	0
411031943250452480	1	2
375724242915962880	2	1
169065564571054080	3	0
370351438485938176	4	3
188312840174702593	2	1
415816049343594496	2	1
262204577472987136	2	1
395549948634476544	2	0
348471660350955520	1	0
349007987588861953	3	2
326329204876656642	3	2
308750587665731584	2	1
322356253458313216	1	1
350702182959550465	3	2
175962824118509568	2	1
218383819051507712	2	1
329726332894322688	2	1
248354175493210112	3	2
341784599099211777	3	0
360393186276937728	2	1
330510514495041537	3	2
312712563362263043	2	2
335084546590658560	3	2
163831781961900032	2	0
340138252860284928	2	1
311897898864492544	2	2
304558818585608192	2	1
327907088321888256	2	0
417754870683549696	1	0
324000825796091904	2	1
266918968638459904	4	3
344150868238667779	2	1
389845338997010432	4	3
213020929914179584	3	0
414609893539479552	2	1
339393652067532802	4	3
414860251796881409	3	2
367286917189996545	2	1
273079936288428032	1	0
310199971477610499	2	2
276496973949984768	3	2
355437903398191105	2	1
227500761481875456	3	2
415915441832595456	2	1
332889145112412162	3	1
321094470814810113	3	2
408733034389975040	2	1
402463139213496321	2	1
296796702508195840	2	1
385549024872632320	3	2
206159381035892736	1	2
412986328825884673	3	1
359292969519554560	2	1
253965885767815168	3	2
346299934393368577	3	1
401082447116660736	2	1
339950417612001281	3	2
266342256796119040	2	1
353496962936475648	2	1
362021439454461952	4	3
292403783504363520	2	1
387435543745007616	2	0
203124759880413185	3	2
271252396519325696	1	1
339035972207513601	2	1
314604318948986880	2	1
394560663923998720	2	1
391325414012227584	2	2
306397150663811072	2	1
374429568276639744	1	2
165162981070602241	1	0
365928515037700096	3	0
394199438861664257	2	1
370369782203572226	2	1
258394948225859585	2	1
233247248685887488	2	1
199932244377337857	2	1
414508261920886785	2	1
408319101233553408	2	2
359371128638152704	2	1
277450069538656257	2	1
358261725541310466	2	2
286492569179922433	2	1
290988059779006465	2	1
177217199738585088	2	0
365725018216349696	3	2
309088277607112704	2	1
305510536458694657	2	1
243788481216798720	2	1
347144735456104448	3	2
380708733699244032	2	1
311206660574175232	1	2
195296908418351105	2	1
400460361218150400	3	1
372463812911591424	2	1
337054291237945345	2	1
197543269285101570	2	0
248124260948799489	2	1
266895981168193536	2	2
331858903463755776	3	2
390901492703825921	2	1
402128492537868288	2	2
320942499172605952	2	1
263128488008101889	2	1
205662155868094465	2	1
277634408272515072	2	0
305150279169499136	1	1
352219181766287360	3	1
307464614206128128	2	2
272911143708803074	4	3
414531465503047680	2	1
305074944075788288	2	1
364855485909827584	4	3
288699346311057409	2	1
405350872076783616	3	2
301074507643367425	1	1
418087338565435392	2	0
399984647222095872	1	2
322834313697714176	2	1
268923965546848256	2	1
287348367779041281	2	1
317806451932409856	2	1
193322815045386240	2	1
240131362953244672	2	1
381405353512304640	3	0
373539285754187776	2	1
170679911651094528	4	1
276524311307755520	3	2
331187481175269376	2	1
290105092001112065	1	0
374094703572307968	1	0
413166467576627200	2	1
224172731342667776	2	2
366786147839520770	1	0
342638040914735106	2	2
299609352556380160	3	2
259840647593357313	2	0
381419893436190720	2	1
248232053051641856	2	1
252225789943218176	2	1
399318264234659840	2	1
243103407106301953	2	0
322386283353763840	2	1
270708536324009984	2	0
394502002837037056	2	1
284203002749911041	2	0
301872855757504512	2	0
338066560092614656	2	1
414151862837710848	2	1
338625008207290368	2	2
394529399451963392	2	3
345316801137229824	2	0
415864604720648192	3	2
408430718965276672	1	2
327745231699189762	3	2
338084184109240321	2	0
341208401595998208	2	1
376275133545316352	1	1
313153444951248896	1	0
183578502757482497	1	2
194832846240759809	2	1
239366244250292224	2	1
281492684269568001	3	2
274069550184681473	3	0
317370175211069440	2	1
418013529783148544	2	1
397332693077483520	2	1
315978471471972353	2	1
327859815563018243	2	1
369221326893891584	2	2
346458205007781889	2	0
391400504989081600	2	1
375217517759045632	2	1
394623609161134080	2	1
252931796239536128	4	3
184342228154589184	2	1
236248787016888320	3	0
278961066850004993	3	2
326938859113955328	3	2
320676767390117890	2	0
193466882563645442	2	1
317027604135825408	2	1
414283779981975553	2	0
299369862936014848	2	1
206092848301486081	2	1
385452844687839232	1	1
371054331472388096	4	3
370679804452167680	4	1
208945493500362752	2	1
188099151475646464	3	2
311186878013513728	2	1
407693001406697472	2	1
339865668520394752	2	1
376893469387948032	2	1
189825837258911744	2	1
213689610386145281	2	1
407850040757981184	2	1
307515033632518145	3	1
310224341767954433	3	2
227270190755348480	2	1
227962408742830080	1	0
352391491626336257	3	2
400303735827857408	1	2
208585407418482689	2	1
399340747079430144	3	2
415679522777100288	2	1
309079563999272963	2	1
367489203351064577	4	3
397522984023236608	2	1
387637616654299136	3	0
228967177636696064	2	1
324046055467544576	2	2
340624236324454400	3	1
375713914816069633	3	2
365841284541333504	3	2
341632348636459008	2	1
416194509115244545	2	1
405222128787533824	3	2
322210669812391936	2	1
394642836815372289	2	1
384441983454158848	4	3
269843439066152960	2	1
323435070583087104	2	1
398150879217713154	2	1
225098590022934528	3	2
402207899981991936	2	1
360128252485976064	1	1
361966283434106882	4	3
283621491893997568	2	0
265912131722031104	3	0
371836838425952256	1	2
221089698788020224	3	2
375297794736926720	2	1
222083999751872514	4	3
365199724736815105	2	1
319362839108268033	1	2
353976246255882242	1	1
380858223961849856	2	1
350792991079804928	2	0
328996092563841024	2	0
219658029971406848	2	1
259791091056910336	2	1
184303360000794625	2	2
329058575928406017	3	2
372182495468744704	2	1
329655967165845505	2	0
298621077599436800	2	1
268120394043633665	3	2
256139207708405760	1	2
329205780781887488	3	2
249106237650792449	3	2
336891874591780864	2	1
324707080164503552	2	1
371221766401560577	2	0
179737191780581376	2	1
415528410383798272	2	0
375064632362541056	2	0
323569549167452160	2	1
413071615329828865	1	1
362769899812577280	2	0
403745309601570816	1	1
392334203854913536	2	1
390428156194467840	2	1
375049532045664256	2	0
284741430746951681	1	0
207281704124153856	4	3
283167836631863297	2	1
393066694815780864	2	1
234900476347441152	3	2
198999208861241344	1	0
282299451463303168	2	2
387358766301061121	2	2
325451021943967745	2	1
213271841551302656	2	2
408879498373787648	2	2
199234744842584064	3	1
376171763723677698	2	1
352314719471804416	2	1
267597969262518272	3	0
229011156067569664	2	1
357261414269849600	2	1
383258176214544384	3	2
398606577940189184	2	1
390963986667425792	2	1
215625498775138305	3	2
239123780159553538	1	0
195268267126964224	2	1
244213454846693376	3	2
386981559376420864	2	1
364809338705031169	2	1
398141107458301952	2	1
242325889696808960	2	0
303955155852873729	3	1
323578137105530882	3	1
192351998698463232	4	3
240176616385433603	2	1
226125883075878912	3	2
208252274781339648	2	1
357924601000501248	2	1
417734719673860097	2	1
375682261934694400	2	1
199849858121732096	2	1
245352842716667904	3	2
330745149686697984	2	1
338005210997862401	2	2
267115762244788225	3	2
392335019600932864	3	2
390445294057316354	2	1
382660121119039489	3	2
288442463612465152	2	1
256428880179650560	1	1
221672363710877698	3	1
294799506875244544	2	1
402323705205760000	2	1
414463609335721984	2	3
340053423577759744	1	0
280378365209350144	2	1
359698668615503873	2	0
204794057623470080	3	0
188696023378571264	2	1
357188075702599682	2	2
358939089489244161	2	1
381939651483013120	4	3
321990043445116928	3	2
197179350439821312	2	1
221645696498024448	2	1
344859381017497600	1	2
318361935571714054	4	3
249666925154664451	2	1
381112728967868416	2	1
266751605049802752	2	1
357749298529697793	2	1
313808789415534592	3	2
217971653794205698	2	1
298827562040303616	2	1
410555494487851008	1	1
398143254358941697	2	1
390033536520294400	3	0
187784208880635904	1	2
216339698497503232	3	2
335657309235736576	2	1
355762876478275586	2	1
308304790218231809	2	0
308744811148623872	3	2
269077252380168192	3	2
408280086656610304	2	1
392295946580537345	2	1
353356464380854273	2	1
339002925651218433	3	2
387367165570981888	2	0
397939105382014976	2	1
392377375343661056	1	1
414957433082380288	2	1
329276647813545988	2	1
406512716707545088	2	1
368904980213682176	2	0
277360611246080000	1	1
291222532051308545	2	0
357832066433433600	2	1
261525450940112898	2	1
338498499144470528	1	0
352140225708965889	2	1
392847463247118336	2	1
289576410241191937	3	2
351817704761602048	2	1
177370427264471040	3	1
367109953066385408	2	1
322548230007181312	1	1
175609317511266304	2	1
363067965681315841	3	2
246801872244047874	2	1
197469925789532160	2	0
264501747400179712	1	2
401179382913695744	3	1
316250886726897665	2	1
259696317218050048	4	3
406996998810636288	1	0
322917307569541120	4	3
358963310256848898	2	1
381954599961128960	2	1
173100758793854977	2	1
287388239579463680	2	1
300792888143515648	2	2
397836866873225216	2	0
332668259730067456	2	2
322771348713787392	2	1
315200596552605696	2	3
346461608949714944	2	0
386947292097282048	2	1
170277154188296193	2	1
289017760934133760	4	3
398952375471579136	2	1
353204342028894208	2	2
238702104137568257	2	0
341658420488847361	2	0
253997468126150656	2	1
329402570508496898	2	1
371030675085725696	2	0
208032954428043265	4	1
293788000683454464	2	0
218394908346695681	1	0
404017388087029760	2	2
380819208718004224	3	2
387065471453118464	1	2
383277074553012224	2	1
406899488163651584	2	1
280723666721988608	2	1
323121665708003329	2	1
210405730812043265	2	0
394351763073286144	1	2
343819411980955649	1	2
361244229625847808	1	1
246710921429401601	2	1
355085667602153472	1	0
321336243877187584	1	0
340968691627859968	2	1
397044995976617984	2	2
354239803295928321	2	1
229019221668028418	2	1
377642811719704576	2	1
319084709479059456	2	0
333686692458422272	2	1
314355356971192320	2	1
268885197829853185	2	1
162231562681856001	3	0
311248754760101888	2	1
209774307579142146	1	0
294584482663657472	1	0
307813636301279233	1	0
260070108427325440	2	0
377121775299338240	2	2
274528737024958464	2	2
159729933848018945	1	1
396472256828026880	2	1
415234127349424128	1	1
401118381828755456	2	0
339746274905571328	3	2
302578089207144448	1	0
240070277592145920	2	1
364858531557556224	4	3
403867872508010496	1	0
355588098547134464	1	0
386363757943087104	2	1
305472695234076673	4	3
329022966203559937	1	1
385526320224280576	2	1
353590619203055617	3	0
408340441256718338	1	1
373234508759195648	3	2
397818972953128960	2	1
376432844325019648	2	1
369667981682696192	3	2
248601425079316480	4	3
338163639657848832	1	0
374401278895742976	2	0
374058151622213632	2	1
366567164708261889	2	1
325462847184306177	2	1
234519404522643456	1	1
287658719410528256	3	0
401516353409916928	2	1
327496386008457216	1	0
408663180165251072	2	1
351236665156702209	2	0
237419285964800000	2	0
244480223352086528	1	0
230832753149607938	2	1
223404675846782978	2	1
317789280351174657	1	1
328886428987711489	2	1
223692028343627776	1	1
266938536975032320	2	1
402405486764756992	2	1
346293961540915200	2	1
353261786629287936	1	0
386258110060707840	2	1
196990499901538304	2	1
393445350410702848	2	1
381997779309965312	4	3
301519687542509569	1	1
365697718565339136	2	1
406895437845913600	4	3
382892729899839490	2	1
323825609971216384	2	2
268457299721482240	2	1
375328058393501696	2	1
310084721193406464	1	0
217162397029371904	2	0
389223026195451904	1	0
324307806582865920	2	0
385979160394743808	2	1
409428588853985281	2	2
339792969173442560	2	1
277045833357205504	2	1
252455416670334976	3	2
413326473689579520	3	2
294831972017123331	2	0
400122427344031744	3	2
343471305384923137	2	1
354645628397162496	1	1
319821194243239936	3	2
223454278214352900	3	2
276197641392648192	1	0
411673847809970176	1	0
289309556935372800	2	1
391841317388427264	2	1
305446260763156480	4	3
363613288468213760	3	2
255449185497776128	2	1
416333571465674752	2	1
215279665911300098	3	2
319643340587028480	2	2
312616299308150784	2	0
204715222064308226	1	2
256196550735306754	2	0
401849486118756352	1	2
269613234502369280	1	0
288729179355238401	2	1
417462125846884352	2	2
169419013758271489	2	1
386587387880435712	3	2
254171922970062848	2	1
376889956385292288	2	1
346749248504725504	2	1
219889278258393088	2	1
400722178083004416	1	0
217378180867166209	4	3
265773653776531456	1	2
290957175956836353	2	1
391986093710901248	2	1
239599406922481665	1	0
400087742492983296	2	1
260132403601887232	2	1
249244914519506944	2	1
279802413295210498	2	0
348840046180323328	3	1
293169875713675264	2	0
393913044600102912	2	1
405462808776548352	1	1
297345686658244609	3	2
314364192796852224	2	1
394831583779098625	2	1
249465105727762432	3	2
414866280462573568	2	1
343921643925692417	1	1
295972825087483904	1	0
223404474822180866	1	0
313352894193745921	2	1
288354721733955585	1	2
315928514140454913	2	1
180543296240750593	3	2
283337250631188481	2	1
238478880866979840	2	1
219990071036755969	2	1
287227600584200192	2	2
376381035769901057	2	1
380040287055523840	2	1
369475184983420928	2	1
368441957124947968	1	0
326028386889760768	4	3
214493526287855616	3	0
311446474800132096	3	2
175424930832322561	1	2
415585535977996288	1	2
362645669707644928	2	1
373662008002236416	4	3
386958250588921856	3	2
301057021053132800	2	1
393177280614129664	2	2
276357057676992512	2	1
389095213169655808	2	1
335213734765133824	2	1
306403915337981952	3	1
226536861772939264	1	0
366394706470506496	2	0
352188640899776512	2	2
345313686031843328	1	2
404428666442358784	1	0
351039347677597696	2	1
235588553155940354	2	0
322420980452585472	2	1
202574413969891328	2	1
368713577865023488	2	1
285810874772512770	2	0
219976830747295745	2	1
370782431655518208	1	1
280022578406502400	2	0
283360279667044352	2	2
259025259913674752	2	1
402929092833853440	2	0
285800533749559297	1	0
228286524507185153	2	1
189128230027014145	2	1
255623609668751360	3	2
373212238322364416	1	0
364810569104097283	2	1
348821511353798656	2	2
381932596445581312	2	1
312367032945496067	2	1
384868321373724672	4	3
391377309963669504	2	0
286076855814070272	2	1
396225955116896256	1	0
221956597700759553	2	2
298627397668962307	1	0
306835681437696001	2	1
266329534830366721	3	2
336315136849612802	2	1
180018221892640768	2	0
208284495965728768	4	3
409150217850589184	2	2
384890731078250496	2	1
228900987723722754	2	1
385864416480092160	2	2
371752580990644224	2	2
304463884494970882	2	0
404097298214289408	2	1
406255982776303617	3	2
368645500582363136	1	1
211080370542751744	3	2
181504823697473536	2	1
331911086267850752	2	0
416282671632089088	2	1
299029695436034048	3	1
362324879875379201	3	1
161327678807478272	2	1
267333544861388801	2	1
306083962701377537	2	1
384819365772001280	2	1
384529219188830208	2	1
295213646131376131	2	1
382616251606261760	1	2
408800893744979969	3	1
391366677637922816	3	1
375310519483498496	2	1
408383067452350464	3	1
417383621637730304	2	0
383236292831887360	4	3
403659716968345600	4	3
394218731670601728	4	3
360813052393824256	3	2
222033961612873728	2	1
183038103676657665	2	0
384519507844141056	2	2
415198109459685376	2	0
414456186172223488	2	1
392115225153241088	2	1
325620154308370433	2	1
173742545296302081	1	1
273062890263703552	2	1
395421501551575040	3	2
392431398675832832	2	2
342574610044305409	2	3
167469844478959616	2	1
291092966850822144	2	2
313761348523802624	1	1
269514431220826112	2	1
286281026144174080	2	1
250205517119647746	3	2
304640674400186368	2	0
163427439446458370	2	0
387600069093896193	2	1
381023297745739776	2	1
350654369106116608	3	2
411614552410054656	2	1
289803394544197632	2	1
272465971246145536	1	0
298929989154394112	3	2
349917812661305344	2	1
292524379525505024	2	0
331593602994147330	3	0
410884229120016384	3	2
198210698512306176	2	1
383244331324149760	2	1
193124290751774720	2	1
200785986295304192	2	1
311662875930411011	1	0
252814110050373632	4	3
324544597797781504	2	1
157259113716391936	2	0
404928055543492608	2	1
251732421001756672	3	2
367706081818337280	2	1
312745256078700545	2	1
155313255752019972	4	3
344859881939009537	2	1
230744097210630144	2	0
318507875074994176	1	1
202168277202509826	1	2
306182100955058176	2	1
380301007416471552	2	2
331422074008653824	2	2
280395395694211074	2	1
372833031419355136	2	1
206811902309961728	2	1
360160319340953601	2	2
410521501478453248	2	1
375413078936264704	2	2
328835795676954625	3	0
290821633332109312	2	1
257128960578695168	1	2
410211397864550400	2	1
384873615009001472	2	2
299034833487806464	2	0
390599537011617792	4	3
234821623100891136	2	2
299192005924380672	2	1
411185362728681474	2	0
263827092213469184	2	0
340550767276617728	2	1
309078573891870721	2	1
289410951139184641	2	1
252908124317556738	3	2
219250989029535744	2	1
396612504589049858	2	1
363791182704295936	2	1
385962160083308544	2	1
359473915652882432	3	2
309069323593449472	2	1
261424271631458304	2	1
166562619271024642	3	2
370278335861260288	2	1
298110647756025857	2	1
256106606159335425	2	1
225376546364465153	2	1
407510039717744641	2	1
364397436736770049	4	3
417049340759535616	3	2
407887591527415808	3	1
275218272008413187	2	1
372736624871759872	2	1
299741980865474560	2	1
340848839399464961	2	1
309117860360384513	2	1
159356263392747522	4	3
231554469467398145	2	1
314503388253532162	1	1
190140063043166208	2	1
237362451308482561	2	1
313126488666931201	1	1
339024542804635648	2	1
334859372062715905	1	1
238801044585451520	1	1
263867925881053186	4	3
372446445385035776	2	1
416465647854309376	3	2
399775717707100160	2	1
275440303048105984	2	1
303192431761977344	2	2
190579346786889728	3	1
332885357559435264	4	3
399217561671589888	2	0
276088496937115648	3	2
333187202903334912	3	2
287398733245714433	2	1
296702665973440512	2	1
208351840415387649	2	1
191626796897288193	2	1
413136728128380928	2	1
273184061080616960	3	2
350340924334813188	2	1
371038365984247808	2	1
195913756050595842	1	0
405494576271458304	2	2
246770004186505216	1	1
389193378425884673	4	3
210698376516337664	3	2
186270186108764161	3	1
248895276402753536	3	2
323666460788539392	2	1
344865148525219840	2	1
400280732074909697	2	1
195490293926199296	2	1
235444402561105920	2	1
414162401940869120	2	1
239168947788853248	3	2
323625649581481985	2	0
218368048015482880	2	1
283266663401529344	2	1
390597493114691584	2	0
197899769379696640	3	2
349578777170423808	2	1
316018375656632320	2	1
285177803291385856	2	1
194520026643046401	2	1
405364645894307840	2	1
317764553154908160	3	2
339086851640004608	2	1
247148580756922368	1	1
197804697560686592	2	0
226156808279056385	1	2
411702538627743745	2	0
244174220102340608	3	2
240095123600465920	2	1
409354156806139904	2	3
404782716773605378	3	2
391030562485706752	3	2
384670179428679680	2	1
166617704877400064	2	1
212921330809577473	1	1
259304552732430336	3	2
366227364402839553	2	1
337744956108181504	2	1
195827868364840960	2	0
349278226205515776	2	1
357266461003223040	3	2
362055076329701377	2	1
388789607586091008	2	1
214789484737335296	2	1
250990318764294145	2	1
320615167962517505	2	1
400284943651454976	2	1
367180488818950145	4	3
391299599857483776	2	1
275812735432921088	2	1
384726510973644801	2	1
213098728742072320	2	1
177570251993661440	2	1
234910308509044736	2	1
383555359950258176	2	1
174999593887608833	3	1
333453128802373636	1	2
370987518168027136	1	1
358104984388255744	4	3
379783993056440321	2	0
254405354018967552	2	0
350468644897165312	2	1
163756284439568384	2	1
393912140035547136	2	1
402619009004482560	3	2
289991353327304704	2	1
224229710249476097	2	1
414529805301059584	1	1
343902335820517376	2	1
383482327478706176	3	2
416818460740837376	2	2
298233317814317057	2	1
391651689872523264	3	1
334030035474329601	2	1
323269161084141568	2	0
194972797813014530	2	1
355642469389578241	2	1
251421224931049472	2	1
290793897544777728	2	2
401402436960542720	2	1
317068950049521665	2	0
332150342785581056	2	2
337290631519027201	2	1
380287702773809152	3	2
380807908780281856	2	1
256598590141657088	3	2
245547832998780929	3	2
256521250539720704	3	2
257114296369164288	2	2
414848808040677376	3	1
357290056324628480	3	2
350190843182858242	1	0
352068162256240642	2	2
235530210076942336	2	0
216577607389560832	3	2
251899129486258178	3	2
337997334103330816	2	1
304021189934870529	2	1
385834901074747394	2	2
397839330032771073	1	0
383661083258814464	3	0
235940837555572736	3	2
298946565756821507	2	1
279256666715848705	2	1
390951724514836480	3	2
212563779655966720	2	1
313480818414735361	2	1
278576125171625985	3	2
373521070542041088	2	1
249600397457633282	2	2
262072212834615296	1	0
332951426319917056	3	1
333399147635961856	2	1
309104012270133248	2	1
414988911359037440	2	1
319540948658966528	2	2
380031286322008064	2	1
293169056943579138	4	3
317712968697663489	4	3
369454710199042050	2	0
400480637276016642	2	1
301904867901976576	2	1
167341433118916610	3	2
379419294519799808	3	2
342278370119274496	4	1
155034829958807552	3	2
351336506041970688	2	1
349281553605599232	2	1
186830933125640194	2	2
306775049724129281	3	2
388774985504129024	3	2
269923375110049792	1	0
335951259788001280	2	1
267535491228917761	2	2
319914271075074049	3	0
318378713672720384	2	1
395792624277536768	1	0
212604492527566849	3	1
183968684178542592	2	1
388046924311703552	2	0
206766865115123713	2	1
180642290069549056	2	0
294075671678951425	3	2
411600066739052545	3	0
349421615047655424	2	0
270580897068228608	2	1
177142148909641728	2	1
277977305127723008	2	1
247559207048589312	4	3
312730559635918848	2	0
342263867591766016	2	2
270730433346539520	1	1
332600926256918529	2	1
361891595940925441	2	2
234786528600141825	2	0
172802853231017984	2	1
341711253678469120	1	2
191106298568376321	3	2
278906029280985089	2	1
285186980499816448	2	2
333227392325779456	1	2
324522632416481282	2	1
312465820947193856	2	1
278234435818758144	2	1
188098805760135168	2	1
313443606667079681	2	1
221973802219876352	3	0
408612099657834498	1	2
208263619127943168	3	1
402136572512194560	1	2
390066216401776640	2	1
383348029870186498	2	1
394510177841721345	2	1
400829185675231232	2	1
357266988734746624	3	2
366696407492603904	2	1
323328929945501696	2	0
351879474456969217	1	0
277669529428045826	2	1
390062814523830272	2	1
298215739297501185	2	1
389215328640966658	2	2
329992015360188416	2	2
305177052305297408	2	1
403568277928304640	2	1
392736438984650753	2	1
205826053757861889	2	2
251509715505385473	3	0
357515366785748992	1	2
211495299456307200	2	1
262312541097697281	2	1
367720589274124288	2	1
235186270974906368	3	2
197222338658435072	2	1
409601409571885056	2	0
268819109179949057	2	2
210459063295815681	2	1
406588754028019713	2	1
330636864409198592	2	1
340857333292867585	2	1
360115143167852545	1	1
341935778718416896	1	0
214854660878643200	2	0
351868788192452608	2	1
360451119018811392	2	2
410581580491407361	1	1
368397654675697664	2	1
308231559029338112	2	1
413148025511747585	2	1
394435148873465856	2	0
259005276907249664	3	2
348263309444784128	2	1
260810597694844928	2	2
370015656932278272	2	1
345436605139525632	2	1
271045285155835904	2	0
294012264820924416	2	1
263675294941052928	2	1
316025588861247488	3	2
300654925917073409	2	1
332193082885939200	2	0
400803303438557184	2	0
318376227197046784	4	3
182475812728082433	2	1
251758436595945472	2	0
321115811106398208	2	1
315858398585434112	2	1
327827040621436928	2	2
329059802208690176	1	0
285393323361968128	3	0
393736651131736064	2	2
373250524369649664	2	1
338011291333578753	4	3
245620762181001216	2	1
207190330464935936	2	2
350084558961639424	2	1
330133788220858368	1	1
256480903734370305	2	1
413546443299778561	2	1
271023285960073216	2	1
304761290293923841	2	2
174585846845022208	2	1
338115519905415168	3	2
230860958908694528	1	2
273413573345169408	2	1
316212506035118082	2	1
380039526116495361	3	2
170546182916018176	1	1
362025383614349312	1	1
264420741792030721	2	1
317007351314014208	2	1
390290387958767616	2	1
207227374486568962	2	1
405710768521625600	2	2
396800003899146240	2	1
251150478203842560	3	0
306136639841914880	2	1
368156649799688193	2	1
324557275282952193	2	2
172656179288350720	2	1
306973401925435392	2	1
412284678184652800	2	1
345755946808643584	3	2
386132772987109376	2	1
403739412309098496	4	3
228985192591790080	2	1
407909236535209984	2	1
302173214312890370	2	1
405375018743234560	3	2
381464999144984576	2	1
307343517393498112	2	1
385832469523492864	2	1
377489537637044224	2	1
383028188978618369	1	0
192785450598019072	2	1
213815209352114177	2	1
314785919074988033	1	1
309532116406915072	1	1
403598556864716800	2	1
172193848590745600	3	2
355023952092995584	4	0
302565274274656256	1	2
387939323620110336	3	2
176115822668951553	2	1
309015711961972738	2	1
265246867275784192	2	1
314126478944124929	2	1
261269640058114048	2	1
361237869634912256	2	0
253438331919163392	2	1
357250345736478721	2	1
367337018483040257	2	0
215182293214572544	2	2
238496113978658816	2	0
288799634883760129	3	2
383009823757185024	1	0
311441443451461632	3	2
346363481047584768	2	1
189144647711473664	2	1
354173737957994497	2	1
403187406578262016	3	2
266739559843373056	2	2
307899537333305345	4	3
407266523984584705	1	0
378632723562512384	2	2
359317796921946112	2	1
404063684231966720	2	0
248145951020154882	3	2
395451151031623680	2	1
199008945887649792	1	0
337703819184046080	3	2
280376903829970944	2	1
305531765865451520	1	2
307547616458178561	2	1
361948024727023617	2	1
339118087418826752	3	2
385513368930758656	2	1
377258634918780929	4	3
371684476814102528	2	1
233031724991406081	1	0
257609901910659072	2	2
338510049330749440	2	1
382522218262978562	2	1
288342346469371904	2	1
252025632890953728	3	2
212617098885726210	2	1
238335043032977409	2	1
407540481208623104	2	3
331947060649664513	1	1
235055634125578241	2	1
250468823428395008	1	0
296146803370381312	2	1
281885241445060609	3	0
365143391287275520	2	1
374022754326310912	2	1
258050791489822720	2	0
295938528901226496	2	0
296145712624852995	1	0
322501804497711104	2	1
369806881919107072	3	2
288477193741422592	2	2
416465981419311104	2	1
396504724930719744	2	1
283341532415807488	2	1
344271926832799745	1	0
216257779067916288	2	0
412942857251876864	1	2
410432035442798592	2	1
235816885650866176	3	2
411572637840588800	2	1
412146436181360641	1	1
336616207887265792	2	1
318574011682529280	2	1
388858941939392512	2	0
318754106728665089	2	0
210610260828897280	2	1
352205997001023488	2	0
268904904477790209	2	1
337437799710093313	1	0
311268198899138562	2	1
378954593855483904	2	1
260260641254821889	2	1
286712557497102337	2	1
379577132915376128	2	2
364508710166863872	2	1
347377074153070592	2	0
393376760488001536	2	1
370959149644791810	2	1
380545092786085888	2	0
276215896538763264	2	2
302160566649245696	2	2
311626954686226432	2	1
312553331581132800	2	1
407883580778364929	3	2
286246202863927296	2	1
415676554371661825	1	1
288357436857917441	2	1
359730679501684737	2	0
252094326534991872	2	0
269207101417603072	2	1
329172119181217793	1	1
227812977250803713	2	1
390903292815212545	3	1
392458447239012352	2	1
160722821293674496	2	1
261487166805389316	2	1
338687480255631360	4	0
336068611313647616	2	0
352219578488721410	3	2
234082645791879168	3	2
253349260949606401	1	1
250302569266679809	3	0
415703920011644928	2	0
413081835413856256	2	1
211717320308047872	1	2
239205215503544320	2	0
238570577235935232	1	1
312519541005627392	1	0
159749564235137024	2	1
301302007346630656	3	2
216339891972341761	2	1
238479500525060096	1	1
238972505598070784	1	1
263856265996935168	3	2
292735354614722560	2	1
403262760345407488	1	0
271000507399675904	1	0
415598262343974912	3	2
371994045666844672	2	0
321349415799517184	2	1
333447275017818114	2	1
273926836998766593	2	1
393334750137831425	3	2
299729617751797760	1	1
260873398715047937	2	1
240081496206102528	2	1
388028130382065664	1	0
248911191265660928	2	1
337908003313446914	2	1
239433759093563393	2	0
182568143141617664	2	1
357254282497638400	3	2
167400732688007168	2	2
322776748750159872	3	2
217999899533393921	2	1
269182798051561472	3	2
367199306081513472	2	1
215459252523900928	2	1
250205576414502912	3	2
236482867633471488	2	1
399939106241003520	1	2
293600811416711169	2	1
286590294869299200	2	1
409498521436684288	2	1
200082676567388160	2	1
367392685176651776	2	1
155677054967365632	2	2
393516415678173184	1	0
321911037181980672	4	3
277253675859210240	4	3
390834029156913152	2	1
350827218798260224	1	1
373173274051506176	2	1
321453914924937217	1	1
157683620704829441	2	1
306182759754395648	2	1
300746484209553408	2	1
328589302156103680	2	1
415704030870904833	2	1
195530031932522496	2	2
229995407500013569	2	1
192266444132712451	4	3
299070901406810112	2	1
379989417769066497	2	1
382453003678396416	2	1
365008028585570304	1	1
331317391831216128	2	1
274313982351904768	2	2
400655822042464256	2	1
349339625355096065	2	0
272334953545621504	2	1
384842865261953024	2	2
302161428905857024	1	0
378982919093903360	2	1
254995378745778176	2	1
363083470811430912	2	1
390721895370219520	4	3
316341780771655680	2	1
