Allegheny County, PA	42003	Drug poisonings (overdose) Unintentional (X40-X44)	D1	2013	2013	249	1231527	20.2
Allegheny County, PA	42003	Drug poisonings (overdose) Suicide (X60-X64)	D2	2013	2013	15	1231527	Unreliable
Armstrong County, PA	42005	Drug poisonings (overdose) Unintentional (X40-X44)	D1	2013	2013	14	68107	Unreliable
Beaver County, PA	42007	Drug poisonings (overdose) Unintentional (X40-X44)	D1	2013	2013	41	170115	24.1
Berks County, PA	42011	Drug poisonings (overdose) Unintentional (X40-X44)	D1	2013	2013	43	413521	10.4
Blair County, PA	42013	Drug poisonings (overdose) Unintentional (X40-X44)	D1	2013	2013	16	126314	Unreliable
Bucks County, PA	42017	Drug poisonings (overdose) Unintentional (X40-X44)	D1	2013	2013	115	626976	18.3
Bucks County, PA	42017	Drug poisonings (overdose) Suicide (X60-X64)	D2	2013	2013	12	626976	Unreliable
Bucks County, PA	42017	Drug poisonings (overdose) Undetermined (Y10-Y14)	D4	2013	2013	14	626976	Unreliable
Bucks County, PA	42017	All other drug-induced causes	D9	2013	2013	21	626976	3.3
Butler County, PA	42019	Drug poisonings (overdose) Unintentional (X40-X44)	D1	2013	2013	37	185476	19.9
Cambria County, PA	42021	Drug poisonings (overdose) Unintentional (X40-X44)	D1	2013	2013	46	140499	32.7
Carbon County, PA	42025	Drug poisonings (overdose) Unintentional (X40-X44)	D1	2013	2013	17	64786	Unreliable
Chester County, PA	42029	Drug poisonings (overdose) Unintentional (X40-X44)	D1	2013	2013	43	509468	8.4
Clearfield County, PA	42033	Drug poisonings (overdose) Unintentional (X40-X44)	D1	2013	2013	16	81174	Unreliable
Crawford County, PA	42039	Drug poisonings (overdose) Unintentional (X40-X44)	D1	2013	2013	16	87376	Unreliable
Cumberland County, PA	42041	Drug poisonings (overdose) Unintentional (X40-X44)	D1	2013	2013	21	241212	8.7
Dauphin County, PA	42043	Drug poisonings (overdose) Unintentional (X40-X44)	D1	2013	2013	34	270937	12.5
Delaware County, PA	42045	Drug poisonings (overdose) Unintentional (X40-X44)	D1	2013	2013	98	561973	17.4
Delaware County, PA	42045	Drug poisonings (overdose) Suicide (X60-X64)	D2	2013	2013	16	561973	Unreliable
Delaware County, PA	42045	Drug poisonings (overdose) Undetermined (Y10-Y14)	D4	2013	2013	24	561973	4.3
Erie County, PA	42049	Drug poisonings (overdose) Unintentional (X40-X44)	D1	2013	2013	50	280294	17.8
Fayette County, PA	42051	Drug poisonings (overdose) Unintentional (X40-X44)	D1	2013	2013	34	134999	25.2
Franklin County, PA	42055	Drug poisonings (overdose) Unintentional (X40-X44)	D1	2013	2013	10	152085	Unreliable
Indiana County, PA	42063	Drug poisonings (overdose) Unintentional (X40-X44)	D1	2013	2013	10	87745	Unreliable
Lackawanna County, PA	42069	Drug poisonings (overdose) Unintentional (X40-X44)	D1	2013	2013	41	213931	19.2
Lancaster County, PA	42071	Drug poisonings (overdose) Unintentional (X40-X44)	D1	2013	2013	49	529600	9.3
Lawrence County, PA	42073	Drug poisonings (overdose) Unintentional (X40-X44)	D1	2013	2013	24	89333	26.9
Lehigh County, PA	42077	Drug poisonings (overdose) Unintentional (X40-X44)	D1	2013	2013	49	355092	13.8
Luzerne County, PA	42079	Drug poisonings (overdose) Unintentional (X40-X44)	D1	2013	2013	59	320103	18.4
Lycoming County, PA	42081	Drug poisonings (overdose) Unintentional (X40-X44)	D1	2013	2013	14	116754	Unreliable
Mercer County, PA	42085	Drug poisonings (overdose) Unintentional (X40-X44)	D1	2013	2013	24	115195	20.8
Monroe County, PA	42089	Drug poisonings (overdose) Unintentional (X40-X44)	D1	2013	2013	22	167148	13.2
Montgomery County, PA	42091	Drug poisonings (overdose) Unintentional (X40-X44)	D1	2013	2013	119	812376	14.6
Montgomery County, PA	42091	Drug poisonings (overdose) Suicide (X60-X64)	D2	2013	2013	17	812376	Unreliable
Northampton County, PA	42095	Drug poisonings (overdose) Unintentional (X40-X44)	D1	2013	2013	39	299791	13
Northumberland County, PA	42097	Drug poisonings (overdose) Unintentional (X40-X44)	D1	2013	2013	14	94076	Unreliable
Philadelphia County, PA	42101	Drug poisonings (overdose) Unintentional (X40-X44)	D1	2013	2013	378	1553165	24.3
Philadelphia County, PA	42101	Drug poisonings (overdose) Suicide (X60-X64)	D2	2013	2013	23	1553165	1.5
Philadelphia County, PA	42101	All other drug-induced causes	D9	2013	2013	14	1553165	Unreliable
Schuylkill County, PA	42107	Drug poisonings (overdose) Unintentional (X40-X44)	D1	2013	2013	18	146920	Unreliable
Somerset County, PA	42111	Drug poisonings (overdose) Unintentional (X40-X44)	D1	2013	2013	10	76520	Unreliable
Susquehanna County, PA	42115	Drug poisonings (overdose) Unintentional (X40-X44)	D1	2013	2013	10	42286	Unreliable
Venango County, PA	42121	Drug poisonings (overdose) Unintentional (X40-X44)	D1	2013	2013	10	53907	Unreliable
Washington County, PA	42125	Drug poisonings (overdose) Unintentional (X40-X44)	D1	2013	2013	43	208206	20.7
Westmoreland County, PA	42129	Drug poisonings (overdose) Unintentional (X40-X44)	D1	2013	2013	94	362437	25.9
York County, PA	42133	Drug poisonings (overdose) Unintentional (X40-X44)	D1	2013	2013	56	438965	12.8